{"type":"FeatureCollection","crs":{"type":"name","properties":{"name":"EPSG:4326"}},"features":[
{"type":"Feature","geometry":{"type":"Polygon","coordinates":[[[-0.1782406716657743,42.78554020556141],[-0.19972765429929562,42.76919255829619],[-0.20308499533578317,42.728868361708656],[-0.18831269477523738,42.71851485177402],[-0.2050993999576758,42.60244655619098],[-0.23061519183498236,42.59863210516243],[-0.22255757334741189,42.56212235960344],[-0.24605896060282584,42.54631963391373],[-0.1849553537387496,42.53378643767707],[-0.17622626704388167,42.473300142795765],[-0.13123789715494638,42.46131186813461],[-0.12318027866737591,42.436790397236784],[-0.06744841746167962,42.42153259312258],[-0.1251946832892683,42.35614200406172],[-0.07886337698573787,42.339794356796496],[-0.16145396648333543,42.29402094445389],[-0.22255757334741189,42.30600921911505],[-0.23531546928606528,42.33815959206998],[-0.3635658968798956,42.347423258853595],[-0.37028057895287114,42.32780608213534],[-0.418626289878294,42.34142912152302],[-0.4683149372183122,42.33924943522099],[-0.521360925594818,42.3550521609107],[-0.5804501278370016,42.39156190646968],[-0.6106661971653911,42.38229823968606],[-0.652968694225136,42.38611269071461],[-0.6475969485667556,42.426981808877656],[-0.6254384977259368,42.41717322051852],[-0.5777642550078115,42.4307962599062],[-0.5817930642515967,42.44605406402041],[-0.5522484631305049,42.48528841745693],[-0.536133226155364,42.490737633212],[-0.48107283315696536,42.47275522122026],[-0.4461564863774934,42.49564192739156],[-0.4139260124272113,42.489102868485475],[-0.39915371186666526,42.50926496677924],[-0.42466950374397205,42.56702665378301],[-0.4206406945001866,42.58827859522779],[-0.44951382741398094,42.605171164068516],[-0.4313841858169474,42.623153576060254],[-0.4656290643891219,42.678735576761994],[-0.44212767713370793,42.70162228293329],[-0.43944180430451785,42.7321378911617],[-0.4213121627074843,42.75121014630445],[-0.4454850181701957,42.76646795041866],[-0.43944180430451785,42.79698355864706],[-0.39445343441558256,42.799163244949085],[-0.3481221281120521,42.83512806893256],[-0.3064910992596046,42.841667127838654],[-0.1782406716657743,42.78554020556141]]]},"properties":{"C_COMARCA":"02"}},
{"type":"Feature","geometry":{"type":"Polygon","coordinates":[[[0.43615273801147625,42.68963400827214],[0.4274236513166083,42.63568677229692],[0.40862254151227706,42.62478834078678],[0.3951931773663264,42.52288800616692],[0.34751893464820105,42.539235653432144],[0.3186458017344065,42.51961847671388],[0.29984469193007524,42.473300142795765],[0.33207516588035757,42.4378802403878],[0.29581588268629,42.41226892633896],[0.3152884606979187,42.39101698489418],[0.37236325831820993,42.37575918077997],[0.3683344490744247,42.347968180429106],[0.33543250691684534,42.334890062616935],[0.3018590965519681,42.279308061915195],[0.2689571543943887,42.26786470882954],[0.26022806769952034,42.239528786903165],[0.22799759374923845,42.22209129648694],[0.18703803310408862,42.216097159156355],[0.15816490019029406,42.23680417902563],[0.13533498114217757,42.20683349237273],[0.09840422974081298,42.216097159156355],[0.06953109682701886,42.20628857079723],[0.024542726938083348,42.216097159156355],[-0.0076877470121985425,42.23680417902563],[0.005070148926454632,42.26132564992346],[-0.03723234813329057,42.2645951793765],[-0.03723234813329057,42.31527288589867],[-0.07886337698573787,42.339794356796496],[-0.1251946832892683,42.35614200406172],[-0.06744841746167962,42.42153259312258],[-0.12318027866737591,42.436790397236784],[-0.13123789715494638,42.46131186813461],[-0.17622626704388167,42.473300142795765],[-0.1849553537387496,42.53378643767707],[-0.24605896060282584,42.54631963391373],[-0.22255757334741189,42.56212235960344],[-0.23061519183498236,42.59863210516243],[-0.2050993999576758,42.60244655619098],[-0.18831269477523738,42.71851485177402],[-0.20308499533578317,42.728868361708656],[-0.19972765429929562,42.76919255829619],[-0.1782406716657743,42.78554020556141],[-0.15406781620306287,42.792624186043],[-0.10907944631412736,42.73486249903924],[-0.068791353876275,42.717969930198514],[-0.0640910764251923,42.699442596631265],[0.0003698714753719301,42.68527463566808],[0.0480441141934973,42.69617306717822],[0.0903466112532425,42.7168800870475],[0.10646184822838345,42.710341028141414],[0.17562307358003038,42.73704218534127],[0.22665465733464352,42.717425008623],[0.25284191741924733,42.71851485177402],[0.29514441447899253,42.673286361006916],[0.32536048380738203,42.704891812386336],[0.3602768305868542,42.7245089891046],[0.3951931773663264,42.699442596631265],[0.43615273801147625,42.68963400827214]]]},"properties":{"C_COMARCA":"03"}},
{"type":"Feature","geometry":{"type":"Polygon","coordinates":[[[0.57716106154396,41.95507972448839],[0.5449305875936781,41.97360705805564],[0.4697261483763535,41.969247685451585],[0.4730834894128413,41.99431407792491],[0.4354812698041788,42.02591952930433],[0.40727960509768213,42.06678864746738],[0.34483306181901074,42.05752498068375],[0.3139455242833238,42.063519118014334],[0.2891012006133149,42.10275347145085],[0.2608995359068178,42.126730020773174],[0.2662712815651984,42.14307766803839],[0.2286690619565359,42.17032374681375],[0.22799759374923845,42.22209129648694],[0.26022806769952034,42.239528786903165],[0.2689571543943887,42.26786470882954],[0.3018590965519681,42.279308061915195],[0.33543250691684534,42.334890062616935],[0.3683344490744247,42.347968180429106],[0.37236325831820993,42.37575918077997],[0.3152884606979187,42.39101698489418],[0.29581588268629,42.41226892633896],[0.33207516588035757,42.4378802403878],[0.29984469193007524,42.473300142795765],[0.3186458017344065,42.51961847671388],[0.34751893464820105,42.539235653432144],[0.3951931773663264,42.52288800616692],[0.40862254151227706,42.62478834078678],[0.4274236513166083,42.63568677229692],[0.43615273801147625,42.68963400827214],[0.48114110790041176,42.699442596631265],[0.6483366915174997,42.693993380876194],[0.6953394660283276,42.65857347846823],[0.7087688301742783,42.620973889758226],[0.7678580324164619,42.60953053667257],[0.759128945721594,42.574110634264606],[0.7255555353567167,42.53215167295055],[0.7369704948807749,42.50817512362823],[0.6966824024429226,42.473845064371275],[0.7114547030034686,42.43515563251026],[0.73562755846618,42.41390369106548],[0.7463710497829408,42.3850228475636],[0.7235411307348243,42.365405670845334],[0.759128945721594,42.34851310200461],[0.7645006913799741,42.32235686638027],[0.7450281133683454,42.30110492493549],[0.7322702174296922,42.247702610535775],[0.7148120440399559,42.22536082593998],[0.6960109342356251,42.1517964132465],[0.7020541481013027,42.12237064816912],[0.652365500761285,42.0231949214268],[0.6550513735904748,41.99976329367999],[0.6234923678474904,41.99158947004738],[0.6080485990796469,41.967067999149556],[0.57716106154396,41.95507972448839]]]},"properties":{"C_COMARCA":"04"}},
{"type":"Feature","geometry":{"type":"Polygon","coordinates":[[[-1.1579127861128873,42.61062037982359],[-1.1229964393334153,42.6111653013991],[-1.0343626359701397,42.597542262011416],[-1.0336911677628422,42.57247586953808],[-0.9215559771441528,42.57138602638707],[-0.8993975263033338,42.559942673301414],[-0.8819393529135977,42.45695249553055],[-0.9054407401690117,42.436790397236784],[-0.8423227286830428,42.40736463215939],[-0.8429941968903403,42.36649551399635],[-0.8920113760230608,42.29674555233142],[-0.843665665097638,42.28257759136824],[-0.812778127561951,42.2645951793765],[-0.8382939194392576,42.22863035539302],[-0.7624180120146353,42.23081004169505],[-0.75570332994166,42.16214992318114],[-0.764432416636528,42.066243725891866],[-0.7879338038919419,42.05207576492868],[-0.8282218963297945,42.082591373157086],[-0.8564235610362911,42.04717147074912],[-0.8544091564143985,42.022105078275786],[-0.884625225742788,42.00357774470854],[-0.9450573643995668,42.00902696046361],[-0.9336424048755085,41.93927699879869],[-1.0095183123001308,41.919114900504916],[-1.0242906128606766,41.90440201796622],[-1.0786795376517775,41.88587468439898],[-1.1142673526385471,41.890778978578545],[-1.206929965245608,41.88097039021941],[-1.2203593293915587,41.853179389868544],[-1.2787770634264448,41.88587468439898],[-1.32107956048619,41.88478484124796],[-1.3351803928394383,41.913665684749844],[-1.3801687627283736,41.95017543030883],[-1.3392092020832236,42.01774570567173],[-1.304964323511049,42.042812098145056],[-1.3103360691694292,42.07223786322245],[-1.351967098021877,42.07332770637346],[-1.3667393985824228,42.10711284405491],[-1.3989698725327049,42.12618509919766],[-1.3915837222524319,42.18122217832389],[-1.4164280459224408,42.22209129648694],[-1.3895693176305393,42.278763140339684],[-1.3989698725327049,42.29129633657635],[-1.3291371789737605,42.355597082486206],[-1.3600247165094475,42.37848378865751],[-1.3412236067051162,42.423712279424606],[-1.2895205547432056,42.457497417106055],[-1.272733849560767,42.482018888003886],[-1.2881776183286104,42.52288800616692],[-1.2653476992804942,42.55612822227287],[-1.2264025432572367,42.542505182885186],[-1.2029011560018228,42.54958916336678],[-1.202229687794525,42.57847000686866],[-1.1579127861128873,42.61062037982359]],[[-1.1283681849917955,42.45204820135098],[-1.0565210868109587,42.434065789359245],[-1.0692789827496119,42.466216162314176],[-1.1068812023582741,42.47820443697533],[-1.1283681849917955,42.45204820135098]]]},"properties":{"C_COMARCA":"05"}},
{"type":"Feature","geometry":{"type":"Polygon","coordinates":[[[-0.6475969485667556,42.426981808877656],[-0.652968694225136,42.38611269071461],[-0.6106661971653911,42.38229823968606],[-0.5804501278370016,42.39156190646968],[-0.521360925594818,42.3550521609107],[-0.4683149372183122,42.33924943522099],[-0.418626289878294,42.34142912152302],[-0.37028057895287114,42.32780608213534],[-0.3635658968798956,42.347423258853595],[-0.23531546928606528,42.33815959206998],[-0.22255757334741189,42.30600921911505],[-0.16145396648333543,42.29402094445389],[-0.1251946832892683,42.25260690471534],[-0.12452321508197084,42.21773192388288],[-0.1433243248863021,42.200294433466645],[-0.13190936536224385,42.169233903662736],[-0.09699301858277165,42.13490384440578],[-0.1178085330089953,42.05970466698578],[-0.10505063707034212,42.013931254643175],[-0.07416309953465516,42.00521250943506],[-0.09565008216817672,41.974696901206656],[-0.1278805561184586,41.95235511661086],[-0.16212543469063334,41.969247685451585],[-0.19099856760442746,41.96052894024347],[-0.22860078721308974,41.974151979631145],[-0.2695603478582398,41.9708824501781],[-0.32327780444204324,41.945271136129264],[-0.34207891424637427,41.96216370496999],[-0.3461077234901595,42.029733980332885],[-0.3964678390374752,42.05480037280622],[-0.40721133035423596,42.02809921560636],[-0.4454850181701957,42.037362882389985],[-0.49383072909561876,42.01120664676564],[-0.5146462435218426,42.01720078409622],[-0.5737354457640262,41.99594884265144],[-0.6207382202748541,41.95998401866796],[-0.6637121855418968,41.958349253941435],[-0.7785332489897763,41.95725941079043],[-0.884625225742788,42.00357774470854],[-0.8544091564143985,42.022105078275786],[-0.8564235610362911,42.04717147074912],[-0.8282218963297945,42.082591373157086],[-0.7879338038919419,42.05207576492868],[-0.764432416636528,42.066243725891866],[-0.75570332994166,42.16214992318114],[-0.7624180120146353,42.23081004169505],[-0.8382939194392576,42.22863035539302],[-0.812778127561951,42.2645951793765],[-0.843665665097638,42.28257759136824],[-0.8920113760230608,42.29674555233142],[-0.8429941968903403,42.36649551399635],[-0.8423227286830428,42.40736463215939],[-0.9054407401690117,42.436790397236784],[-0.8819393529135977,42.45695249553055],[-0.8047205090743805,42.43188610305722],[-0.7785332489897763,42.46240171128562],[-0.7315304744789484,42.45422788765301],[-0.6945997230775838,42.4836536527304],[-0.6475969485667556,42.426981808877656]]]},"properties":{"C_COMARCA":"06"}},
{"type":"Feature","geometry":{"type":"Polygon","coordinates":[[[0.22799759374923845,42.22209129648694],[0.2286690619565359,42.17032374681375],[0.2662712815651984,42.14307766803839],[0.2608995359068178,42.126730020773174],[0.2891012006133149,42.10275347145085],[0.3139455242833238,42.063519118014334],[0.29783028730818284,42.037907803965496],[0.27500036826006635,42.038452725541],[0.2300119983711313,42.01338633306767],[0.17830894640922024,42.01938047039825],[0.17159426433624514,41.99540392107593],[0.18233775565300547,41.95780433236593],[0.15950783660488943,41.934917626194625],[0.11451946671595392,41.958349253941435],[0.08497486559486234,41.952900038186364],[0.061473478339448384,41.90767154741927],[0.026557131559976188,41.86843719398274],[0.01715657665781034,41.83029268369724],[-0.014402429085174084,41.81666964430956],[-0.05334758510843152,41.84664033096246],[-0.052004648693836586,41.86080829192564],[-0.1157941283871029,41.88641960597448],[-0.1278805561184586,41.95235511661086],[-0.09565008216817672,41.974696901206656],[-0.07416309953465516,42.00521250943506],[-0.10505063707034212,42.013931254643175],[-0.1178085330089953,42.05970466698578],[-0.09699301858277165,42.13490384440578],[-0.13190936536224385,42.169233903662736],[-0.1433243248863021,42.200294433466645],[-0.12452321508197084,42.21773192388288],[-0.1251946832892683,42.25260690471534],[-0.16145396648333543,42.29402094445389],[-0.07886337698573787,42.339794356796496],[-0.03723234813329057,42.31527288589867],[-0.03723234813329057,42.2645951793765],[0.005070148926454632,42.26132564992346],[-0.0076877470121985425,42.23680417902563],[0.024542726938083348,42.216097159156355],[0.06953109682701886,42.20628857079723],[0.09840422974081298,42.216097159156355],[0.13533498114217757,42.20683349237273],[0.15816490019029406,42.23680417902563],[0.18703803310408862,42.216097159156355],[0.22799759374923845,42.22209129648694]]]},"properties":{"C_COMARCA":"07"}},
{"type":"Feature","geometry":{"type":"Polygon","coordinates":[[[0.29783028730818284,42.037907803965496],[0.29917322372277777,41.99485899950042],[0.2803721139184465,41.992679313198394],[0.2588851312849254,41.952900038186364],[0.2877582641987195,41.934917626194625],[0.2736574318454714,41.91203092002333],[0.28574385957682713,41.88696452754999],[0.2488131081754621,41.798687232317825],[0.2467987035535697,41.771986075117965],[0.20986795215220466,41.774710682995504],[0.19039537414057595,41.75509350627724],[0.21255382498139497,41.727302505926374],[0.12459148982541723,41.6766247994042],[0.030585940803761424,41.70441579975507],[-0.003658937768413306,41.77525560457101],[0.018499513072405716,41.77689036929753],[0.04200090032781967,41.80740597752594],[0.01715657665781034,41.83029268369724],[0.026557131559976188,41.86843719398274],[0.061473478339448384,41.90767154741927],[0.08497486559486234,41.952900038186364],[0.11451946671595392,41.958349253941435],[0.15950783660488943,41.934917626194625],[0.18233775565300547,41.95780433236593],[0.17159426433624514,41.99540392107593],[0.17830894640922024,42.01938047039825],[0.2300119983711313,42.01338633306767],[0.27500036826006635,42.038452725541],[0.29783028730818284,42.037907803965496]]]},"properties":{"C_COMARCA":"08"}},
{"type":"Feature","geometry":{"type":"Polygon","coordinates":[[[0.57716106154396,41.95507972448839],[0.5623887609834144,41.9327379398926],[0.6026768534212668,41.92238442995796],[0.5926048303118034,41.88423991967245],[0.6060341944577545,41.87007195870927],[0.5576884835323312,41.85426923301956],[0.5442591193863806,41.82102901691362],[0.5106857090215033,41.82048409533811],[0.48315551252230415,41.80141184019536],[0.4697261483763535,41.76544701621188],[0.4079510733049796,41.7594528788813],[0.3683344490744247,41.714224388114204],[0.33408957050224997,41.688068152489855],[0.28440092316223176,41.70550564290608],[0.2985017555154803,41.72021852544478],[0.2608995359068178,41.73929078058753],[0.2467987035535697,41.771986075117965],[0.2488131081754621,41.798687232317825],[0.28574385957682713,41.88696452754999],[0.2736574318454714,41.91203092002333],[0.2877582641987195,41.934917626194625],[0.2588851312849254,41.952900038186364],[0.2803721139184465,41.992679313198394],[0.29917322372277777,41.99485899950042],[0.29783028730818284,42.037907803965496],[0.3139455242833238,42.063519118014334],[0.34483306181901074,42.05752498068375],[0.40727960509768213,42.06678864746738],[0.4354812698041788,42.02591952930433],[0.4730834894128413,41.99431407792491],[0.4697261483763535,41.969247685451585],[0.5449305875936781,41.97360705805564],[0.57716106154396,41.95507972448839]]]},"properties":{"C_COMARCA":"09"}},
{"type":"Feature","geometry":{"type":"Polygon","coordinates":[[[-0.1278805561184586,41.95235511661086],[-0.1157941283871029,41.88641960597448],[-0.052004648693836586,41.86080829192564],[-0.05334758510843152,41.84664033096246],[-0.014402429085174084,41.81666964430956],[0.01715657665781034,41.83029268369724],[0.04200090032781967,41.80740597752594],[0.018499513072405716,41.77689036929753],[-0.003658937768413306,41.77525560457101],[0.030585940803761424,41.70441579975507],[-0.017759770121661855,41.651013485355364],[-0.00030159673192553527,41.62049787712696],[-0.027831793231124724,41.5709100137558],[0.01379923562132257,41.538214719225365],[-0.006344810597603612,41.48753701270319],[0.03125740901105889,41.4651952281074],[-0.023802983987339488,41.397080031169],[-0.04931877586464628,41.36057028561001],[-0.07282016312006023,41.37691793287523],[-0.14735313413008733,41.37146871712016],[-0.13996698384981432,41.40034956062204],[-0.2050993999576758,41.446667894540155],[-0.19838471788470047,41.47118936543798],[-0.22188610514011442,41.48917177742972],[-0.2843326484187858,41.49843544421334],[-0.32529220906393586,41.49680067948682],[-0.3555082783923251,41.525136601413195],[-0.3098484402960924,41.54529869970696],[-0.2742606253093227,41.59052719047406],[-0.30246229001581937,41.60796468089029],[-0.33536423217339895,41.60033577883319],[-0.36759470612368084,41.5480233075845],[-0.41191160780531866,41.54693346443348],[-0.4535426366577662,41.58453305314348],[-0.5112889024853549,41.60033577883319],[-0.5153177117291401,41.61232405349435],[-0.5730639775567286,41.6232224850045],[-0.6079803243362008,41.70550564290608],[-0.6563260352616238,41.70441579975507],[-0.7013144051505591,41.7218532901713],[-0.7113864282600222,41.751279055248695],[-0.6892279774192034,41.77035131039145],[-0.6993000005286665,41.80032199704434],[-0.698628532321369,41.8646227429542],[-0.6435681393229704,41.83356221315029],[-0.6274529023478295,41.86843719398274],[-0.650282821395946,41.90167741008869],[-0.6939282548702861,41.92020474365593],[-0.6637121855418968,41.958349253941435],[-0.6207382202748541,41.95998401866796],[-0.5737354457640262,41.99594884265144],[-0.5146462435218426,42.01720078409622],[-0.49383072909561876,42.01120664676564],[-0.4454850181701957,42.037362882389985],[-0.40721133035423596,42.02809921560636],[-0.3964678390374752,42.05480037280622],[-0.3461077234901595,42.029733980332885],[-0.34207891424637427,41.96216370496999],[-0.32327780444204324,41.945271136129264],[-0.2695603478582398,41.9708824501781],[-0.22860078721308974,41.974151979631145],[-0.19099856760442746,41.96052894024347],[-0.16212543469063334,41.969247685451585],[-0.1278805561184586,41.95235511661086]]]},"properties":{"C_COMARCA":"10"}},
{"type":"Feature","geometry":{"type":"Polygon","coordinates":[[[0.2467987035535697,41.771986075117965],[0.2608995359068178,41.73929078058753],[0.2985017555154803,41.72021852544478],[0.28440092316223176,41.70550564290608],[0.33408957050224997,41.688068152489855],[0.3260319520146795,41.67444511310217],[0.3535621485138787,41.62921662233507],[0.34953333927009345,41.59924593568218],[0.40190785943930196,41.59270687677609],[0.44622476112093956,41.54311901340493],[0.3978790501955163,41.491351463731746],[0.341475720782523,41.47990811064609],[0.348861871062796,41.443943286662616],[0.34214718898982044,41.41397260000972],[0.31998873814900186,41.39435542329146],[0.37236325831820993,41.354031226703924],[0.34953333927009345,41.33114452053262],[0.3656485762452344,41.30389844175726],[0.33274663408765504,41.283736343463495],[0.2817150503330419,41.29626953970016],[0.24545576713897477,41.278287127708424],[0.22665465733464352,41.25322073523509],[0.1722657325435426,41.26302932359422],[0.15480755915380628,41.25485549996161],[0.09974716615540791,41.28210157873697],[0.09303248408243281,41.312617186965376],[0.11787680775244169,41.31970116744697],[0.10646184822838345,41.35076169725088],[0.009770426377537333,41.36057028561001],[-0.023802983987339488,41.397080031169],[0.03125740901105889,41.4651952281074],[-0.006344810597603612,41.48753701270319],[0.01379923562132257,41.538214719225365],[-0.027831793231124724,41.5709100137558],[-0.00030159673192553527,41.62049787712696],[-0.017759770121661855,41.651013485355364],[0.030585940803761424,41.70441579975507],[0.12459148982541723,41.6766247994042],[0.21255382498139497,41.727302505926374],[0.19039537414057595,41.75509350627724],[0.20986795215220466,41.774710682995504],[0.2467987035535697,41.771986075117965]]]},"properties":{"C_COMARCA":"11"}},
{"type":"Feature","geometry":{"type":"Polygon","coordinates":[[[-1.3351803928394383,41.735476329558985],[-1.3761399534845884,41.73057203537942],[-1.4399294331778547,41.69188260351841],[-1.4627593522259712,41.64283966172275],[-1.504390381078419,41.62104279870247],[-1.5131194677732869,41.63793536754319],[-1.5997388665146697,41.698421662424494],[-1.6749433057319945,41.69242752509391],[-1.7273178259012028,41.725122819624346],[-1.6903870744998377,41.75509350627724],[-1.6608424733787461,41.795962624440286],[-1.6494275138546879,41.84010127205637],[-1.6205543809408935,41.85971844877463],[-1.6124967624533229,41.88369499809695],[-1.5769089474665532,41.888054370701006],[-1.580266288503041,41.92074966523144],[-1.52319149088275,41.9098512337213],[-1.5017045082492286,41.92401919468448],[-1.4217997915808214,41.91312076317434],[-1.3801687627283736,41.95017543030883],[-1.3351803928394383,41.913665684749844],[-1.360696184716745,41.888054370701006],[-1.3559959072656622,41.84609540938695],[-1.3177222194497022,41.8046813696484],[-1.3425665431197114,41.766536859362894],[-1.3351803928394383,41.735476329558985]]]},"properties":{"C_COMARCA":"13"}},
{"type":"Feature","geometry":{"type":"Polygon","coordinates":[[[-1.504390381078419,41.62104279870247],[-1.474845779957327,41.598701014106666],[-1.5164768088097746,41.57690415108638],[-1.52319149088275,41.54693346443348],[-1.5634795833206026,41.53984948395189],[-1.5822806931249338,41.48426748325015],[-1.6353266815014393,41.451572188719716],[-1.6655427508298288,41.45920109077682],[-1.676957710353887,41.51314832675204],[-1.7098596525114664,41.53385534662131],[-1.7629056408879724,41.549113150735515],[-1.7830496871068986,41.53984948395189],[-1.8260236523739413,41.55510728806609],[-1.860268530946116,41.59216195520058],[-1.8710120222628766,41.61831819082493],[-1.9079427736642414,41.62104279870247],[-1.8736978950920666,41.63793536754319],[-1.8589255945315208,41.66136699529],[-1.813265756435288,41.66082207371449],[-1.8092369471915026,41.68479862303681],[-1.7756635368266256,41.724577898048835],[-1.7273178259012028,41.725122819624346],[-1.6749433057319945,41.69242752509391],[-1.5997388665146697,41.698421662424494],[-1.5131194677732869,41.63793536754319],[-1.504390381078419,41.62104279870247]]]},"properties":{"C_COMARCA":"14"}},
{"type":"Feature","geometry":{"type":"Polygon","coordinates":[[[-1.0786795376517775,41.88587468439898],[-1.1082241387728693,41.843370801509415],[-1.1229964393334153,41.804136448072896],[-1.065921641713124,41.79105833026072],[-0.9967604163614774,41.74473999634261],[-1.0054895030563453,41.73166187853043],[-1.0511493411525783,41.727302505926374],[-1.086737156139348,41.71040993708565],[-1.130382589613688,41.740380623738545],[-1.1679848092223506,41.72076344702029],[-1.1491836994180193,41.68970291721638],[-1.2687050403169817,41.72130836859579],[-1.2942208321942883,41.70714040763261],[-1.3351803928394383,41.735476329558985],[-1.3425665431197114,41.766536859362894],[-1.3177222194497022,41.8046813696484],[-1.3559959072656622,41.84609540938695],[-1.360696184716745,41.888054370701006],[-1.3351803928394383,41.913665684749844],[-1.32107956048619,41.88478484124796],[-1.2787770634264448,41.88587468439898],[-1.2203593293915587,41.853179389868544],[-1.206929965245608,41.88097039021941],[-1.1142673526385471,41.890778978578545],[-1.0786795376517775,41.88587468439898]]]},"properties":{"C_COMARCA":"15"}},
{"type":"Feature","geometry":{"type":"Polygon","coordinates":[[[-1.1491836994180193,41.68970291721638],[-1.158584254320185,41.659187308987974],[-1.0759936648225872,41.62158772027797],[-1.0417487862504127,41.61559358294739],[-1.032348231348247,41.59488656307812],[-1.095466242834216,41.5480233075845],[-1.0404058498358175,41.52786120929073],[-1.07800806944448,41.480453032221604],[-1.120310566504225,41.50606434627044],[-1.1297111214063906,41.52350183668667],[-1.1646274681858628,41.525136601413195],[-1.1894717918558717,41.51314832675204],[-1.2546042079637334,41.51423816990305],[-1.2794485316337423,41.49680067948682],[-1.3029499188891562,41.46083585550334],[-1.2626618264513039,41.40089448219754],[-1.3157078148278096,41.375828089724216],[-1.3492812251926867,41.36874410924262],[-1.3580103118875546,41.34694724622233],[-1.3935981268743245,41.367654266091606],[-1.4372435603486646,41.34258787361827],[-1.4560446701529959,41.36329489348755],[-1.4359006239340695,41.38836128596088],[-1.509762126736799,41.45920109077682],[-1.4775316527865172,41.49952528736436],[-1.451344392701913,41.49952528736436],[-1.457387606567591,41.577449072661885],[-1.474845779957327,41.598701014106666],[-1.504390381078419,41.62104279870247],[-1.4627593522259712,41.64283966172275],[-1.4399294331778547,41.69188260351841],[-1.3761399534845884,41.73057203537942],[-1.3351803928394383,41.735476329558985],[-1.2942208321942883,41.70714040763261],[-1.2687050403169817,41.72130836859579],[-1.1491836994180193,41.68970291721638]]]},"properties":{"C_COMARCA":"16"}},
{"type":"Feature","geometry":{"type":"Polygon","coordinates":[[[-0.884625225742788,42.00357774470854],[-0.7785332489897763,41.95725941079043],[-0.6637121855418968,41.958349253941435],[-0.6939282548702861,41.92020474365593],[-0.650282821395946,41.90167741008869],[-0.6274529023478295,41.86843719398274],[-0.6435681393229704,41.83356221315029],[-0.698628532321369,41.8646227429542],[-0.6993000005286665,41.80032199704434],[-0.6892279774192034,41.77035131039145],[-0.7113864282600222,41.751279055248695],[-0.7013144051505591,41.7218532901713],[-0.6563260352616238,41.70441579975507],[-0.6079803243362008,41.70550564290608],[-0.5730639775567286,41.6232224850045],[-0.5153177117291401,41.61232405349435],[-0.5112889024853549,41.60033577883319],[-0.5307614804969836,41.538214719225365],[-0.5663492954837532,41.48862685585421],[-0.5777642550078115,41.43631438460552],[-0.6039515150924155,41.38781636438537],[-0.6287958387624246,41.40252924692407],[-0.652968694225136,41.385636678083344],[-0.7825620582335615,41.42432610994436],[-0.8235216188787116,41.44557805138914],[-0.8732102662187298,41.49244130688276],[-0.908126612998202,41.48753701270319],[-0.9249133181806404,41.42596087467088],[-0.9195415725222602,41.401439403773054],[-0.9591581967528151,41.39054097226291],[-1.0242906128606766,41.42051165891581],[-1.029662358519057,41.4504823455687],[-1.07800806944448,41.480453032221604],[-1.0404058498358175,41.52786120929073],[-1.095466242834216,41.5480233075845],[-1.032348231348247,41.59488656307812],[-1.0417487862504127,41.61559358294739],[-1.0759936648225872,41.62158772027797],[-1.158584254320185,41.659187308987974],[-1.1491836994180193,41.68970291721638],[-1.1679848092223506,41.72076344702029],[-1.130382589613688,41.740380623738545],[-1.086737156139348,41.71040993708565],[-1.0511493411525783,41.727302505926374],[-1.0054895030563453,41.73166187853043],[-0.9967604163614774,41.74473999634261],[-1.065921641713124,41.79105833026072],[-1.1229964393334153,41.804136448072896],[-1.1082241387728693,41.843370801509415],[-1.0786795376517775,41.88587468439898],[-1.0242906128606766,41.90440201796622],[-1.0095183123001308,41.919114900504916],[-0.9336424048755085,41.93927699879869],[-0.9450573643995668,42.00902696046361],[-0.884625225742788,42.00357774470854]]]},"properties":{"C_COMARCA":"17"}},
{"type":"Feature","geometry":{"type":"Polygon","coordinates":[[[-0.14735313413008733,41.37146871712016],[-0.13526670639873162,41.29300001024711],[-0.14399579309359956,41.267933617773785],[-0.18226948090955952,41.29300001024711],[-0.21181408203065133,41.238507852696394],[-0.21651435948173403,41.19055475405176],[-0.2688888796509423,41.215076224949584],[-0.31320578133258015,41.25540042153712],[-0.33737863679529156,41.241232460573926],[-0.4058683939396408,41.27229299037784],[-0.4286983129877573,41.29408985339813],[-0.42399803553667437,41.31370703011639],[-0.4703293418402048,41.31806640272045],[-0.47972989674237043,41.345857403071314],[-0.4931592608883213,41.35130661882639],[-0.5676922318983484,41.354031226703924],[-0.6039515150924155,41.38781636438537],[-0.5777642550078115,41.43631438460552],[-0.5663492954837532,41.48862685585421],[-0.5307614804969836,41.538214719225365],[-0.5112889024853549,41.60033577883319],[-0.4535426366577662,41.58453305314348],[-0.41191160780531866,41.54693346443348],[-0.36759470612368084,41.5480233075845],[-0.33536423217339895,41.60033577883319],[-0.30246229001581937,41.60796468089029],[-0.2742606253093227,41.59052719047406],[-0.3098484402960924,41.54529869970696],[-0.3555082783923251,41.525136601413195],[-0.32529220906393586,41.49680067948682],[-0.2843326484187858,41.49843544421334],[-0.22188610514011442,41.48917177742972],[-0.19838471788470047,41.47118936543798],[-0.2050993999576758,41.446667894540155],[-0.13996698384981432,41.40034956062204],[-0.14735313413008733,41.37146871712016]]]},"properties":{"C_COMARCA":"18"}},
{"type":"Feature","geometry":{"type":"Polygon","coordinates":[[[0.3656485762452344,41.30389844175726],[0.3857926224641606,41.27883204928393],[0.3575909577576639,41.22542973488422],[0.3226746109781917,41.22542973488422],[0.303202032966563,41.16439851842741],[0.2488131081754621,41.13061338074596],[0.21859703884707304,41.13115830232147],[0.20113886545733672,41.1028223803951],[0.22061144346896544,41.07121692901568],[0.1467499406662358,41.06358802695857],[0.11921974416703662,41.07666614477075],[0.057444669095662704,41.07503138004422],[0.03662915466943906,41.04669545811785],[-0.0009730649392230006,41.09028918415843],[-0.011716556255983779,41.11917002766031],[-0.0781919087784404,41.15077547903973],[-0.10370770065574719,41.149685635888716],[-0.18092654449496437,41.18837506774973],[-0.21651435948173403,41.19055475405176],[-0.21181408203065133,41.238507852696394],[-0.18226948090955952,41.29300001024711],[-0.14399579309359956,41.267933617773785],[-0.13526670639873162,41.29300001024711],[-0.14735313413008733,41.37146871712016],[-0.07282016312006023,41.37691793287523],[-0.04931877586464628,41.36057028561001],[-0.023802983987339488,41.397080031169],[0.009770426377537333,41.36057028561001],[0.10646184822838345,41.35076169725088],[0.11787680775244169,41.31970116744697],[0.09303248408243281,41.312617186965376],[0.09974716615540791,41.28210157873697],[0.15480755915380628,41.25485549996161],[0.1722657325435426,41.26302932359422],[0.22665465733464352,41.25322073523509],[0.24545576713897477,41.278287127708424],[0.2817150503330419,41.29626953970016],[0.33274663408765504,41.283736343463495],[0.3656485762452344,41.30389844175726]]]},"properties":{"C_COMARCA":"19"}},
{"type":"Feature","geometry":{"type":"Polygon","coordinates":[[[-1.474845779957327,41.598701014106666],[-1.457387606567591,41.577449072661885],[-1.451344392701913,41.49952528736436],[-1.4775316527865172,41.49952528736436],[-1.509762126736799,41.45920109077682],[-1.4359006239340695,41.38836128596088],[-1.4560446701529959,41.36329489348755],[-1.4372435603486646,41.34258787361827],[-1.3935981268743245,41.367654266091606],[-1.3580103118875546,41.34694724622233],[-1.3324945200102483,41.299539069153205],[-1.291534959365098,41.257035186263636],[-1.32376543331538,41.23741800954538],[-1.3526385662291744,41.265209009896246],[-1.373454080655398,41.26466408832074],[-1.4211283233735237,41.241232460573926],[-1.4627593522259712,41.17747663623958],[-1.5151338723951795,41.167668047880454],[-1.5856380341614214,41.20090826398639],[-1.6299549358430592,41.17475202836205],[-1.6393554907452246,41.152410243766255],[-1.618539976319001,41.126254008141906],[-1.7172458027917394,41.09791808621553],[-1.757533895229592,41.054869281750456],[-1.8025222651185273,41.089199341007415],[-1.868997617640984,41.10772667457466],[-1.8904846002745053,41.133337988623495],[-1.9321156291269528,41.13878720437857],[-1.9589743574188545,41.17257234206002],[-2.0529799064405103,41.14750594958669],[-2.079838634732412,41.1709375773335],[-2.1463139872548687,41.18456061672118],[-2.148999860084059,41.21889067597813],[-2.17048684271758,41.31861132429596],[-2.1496713282913564,41.35566599143045],[-2.1201267271702644,41.38018746232827],[-2.1167693861337766,41.424871031519864],[-2.101325617365933,41.44557805138914],[-2.035521733050774,41.42705071782189],[-2.0294785191850964,41.38400191335682],[-1.9536026117604741,41.40852338425465],[-1.9536026117604741,41.462470620229865],[-1.9811328082596733,41.48644716955218],[-1.967031975906425,41.545843621282465],[-1.9938907041983267,41.57690415108638],[-1.993219235991029,41.6008807004087],[-1.9233865424320848,41.59815609253116],[-1.9079427736642414,41.62104279870247],[-1.8710120222628766,41.61831819082493],[-1.860268530946116,41.59216195520058],[-1.8260236523739413,41.55510728806609],[-1.7830496871068986,41.53984948395189],[-1.7629056408879724,41.549113150735515],[-1.7098596525114664,41.53385534662131],[-1.676957710353887,41.51314832675204],[-1.6655427508298288,41.45920109077682],[-1.6353266815014393,41.451572188719716],[-1.5822806931249338,41.48426748325015],[-1.5634795833206026,41.53984948395189],[-1.52319149088275,41.54693346443348],[-1.5164768088097746,41.57690415108638],[-1.474845779957327,41.598701014106666]]]},"properties":{"C_COMARCA":"20"}},
{"type":"Feature","geometry":{"type":"Polygon","coordinates":[[[-1.1297111214063906,41.52350183668667],[-1.120310566504225,41.50606434627044],[-1.07800806944448,41.480453032221604],[-1.029662358519057,41.4504823455687],[-1.0242906128606766,41.42051165891581],[-0.9591581967528151,41.39054097226291],[-0.9645299424111955,41.362205050336534],[-0.9880313296666094,41.34531248149581],[-0.9759449019352535,41.322425775324504],[-0.949086173643352,41.31588671641842],[-0.9551293875090299,41.283736343463495],[-0.9974318845687749,41.265209009896246],[-1.0511493411525783,41.254310578386104],[-1.0847227515174553,41.26466408832074],[-1.1216535029188202,41.25267581365958],[-1.1216535029188202,41.21889067597813],[-1.1491836994180193,41.19055475405176],[-1.193500601099657,41.19000983247625],[-1.1854429826120865,41.21126177392103],[-1.1968579421361447,41.241232460573926],[-1.291534959365098,41.257035186263636],[-1.3324945200102483,41.299539069153205],[-1.3580103118875546,41.34694724622233],[-1.3492812251926867,41.36874410924262],[-1.3157078148278096,41.375828089724216],[-1.2626618264513039,41.40089448219754],[-1.3029499188891562,41.46083585550334],[-1.2794485316337423,41.49680067948682],[-1.2546042079637334,41.51423816990305],[-1.1894717918558717,41.51314832675204],[-1.1646274681858628,41.525136601413195],[-1.1297111214063906,41.52350183668667]]]},"properties":{"C_COMARCA":"21"}},
{"type":"Feature","geometry":{"type":"Polygon","coordinates":[[[-0.6039515150924155,41.38781636438537],[-0.5676922318983484,41.354031226703924],[-0.5824645324588942,41.32678514792856],[-0.5670207636910507,41.304443363332766],[-0.5274041394604958,41.28809571606755],[-0.5059171568269745,41.25049612735755],[-0.531432948704281,41.22760942118625],[-0.5482196538867197,41.267933617773785],[-0.6052944515070107,41.322425775324504],[-0.6294673069697221,41.31152734381436],[-0.6254384977259368,41.24831644105552],[-0.660354844505409,41.22978910748828],[-0.6099947289580934,41.191644597202774],[-0.6375249254572926,41.173662185211036],[-0.6939282548702861,41.112086047178714],[-0.7154152375038074,41.12461924341538],[-0.7530174571124697,41.16657820472944],[-0.7765188443678837,41.152410243766255],[-0.7946484859649174,41.105002066697125],[-0.8282218963297945,41.096283321489004],[-0.8839537575354903,41.13006845917045],[-0.9128268904492847,41.09301379203596],[-0.9571437921309225,41.07612122319524],[-0.99877482098337,41.09519347833799],[-1.0007892256052626,41.11481065505625],[-0.972587560898766,41.15350008691727],[-0.9544579193017322,41.188919989325235],[-0.9699016880695757,41.20526763659045],[-0.9974318845687749,41.265209009896246],[-0.9551293875090299,41.283736343463495],[-0.949086173643352,41.31588671641842],[-0.9759449019352535,41.322425775324504],[-0.9880313296666094,41.34531248149581],[-0.9645299424111955,41.362205050336534],[-0.9591581967528151,41.39054097226291],[-0.9195415725222602,41.401439403773054],[-0.9249133181806404,41.42596087467088],[-0.908126612998202,41.48753701270319],[-0.8732102662187298,41.49244130688276],[-0.8235216188787116,41.44557805138914],[-0.7825620582335615,41.42432610994436],[-0.652968694225136,41.385636678083344],[-0.6287958387624246,41.40252924692407],[-0.6039515150924155,41.38781636438537]]]},"properties":{"C_COMARCA":"22"}},
{"type":"Feature","geometry":{"type":"Polygon","coordinates":[[[-0.4931592608883213,41.35130661882639],[-0.47972989674237043,41.345857403071314],[-0.4703293418402048,41.31806640272045],[-0.42399803553667437,41.31370703011639],[-0.4286983129877573,41.29408985339813],[-0.4058683939396408,41.27229299037784],[-0.33737863679529156,41.241232460573926],[-0.31320578133258015,41.25540042153712],[-0.2688888796509423,41.215076224949584],[-0.21651435948173403,41.19055475405176],[-0.2366584057006602,41.17420710678654],[-0.2319581282495775,41.14750594958669],[-0.27090328427283494,41.13442783177452],[-0.32260633623474555,41.09246887046046],[-0.34275038245367195,41.06195326223205],[-0.3434218506609694,41.03307241873017],[-0.41996922629288913,41.083750125252344],[-0.44951382741398094,41.08756457628089],[-0.4703293418402048,41.05323451702394],[-0.497859538339404,41.041246242362774],[-0.5723925093494311,41.07666614477075],[-0.6234240931040442,41.08483996840336],[-0.6569975034689213,41.10554698827263],[-0.6919138502483935,41.10009777251756],[-0.6939282548702861,41.112086047178714],[-0.6375249254572926,41.173662185211036],[-0.6099947289580934,41.191644597202774],[-0.660354844505409,41.22978910748828],[-0.6254384977259368,41.24831644105552],[-0.6294673069697221,41.31152734381436],[-0.6052944515070107,41.322425775324504],[-0.5482196538867197,41.267933617773785],[-0.531432948704281,41.22760942118625],[-0.5059171568269745,41.25049612735755],[-0.5274041394604958,41.28809571606755],[-0.5670207636910507,41.304443363332766],[-0.5824645324588942,41.32678514792856],[-0.5676922318983484,41.354031226703924],[-0.4931592608883213,41.35130661882639]]]},"properties":{"C_COMARCA":"23"}},
{"type":"Feature","geometry":{"type":"Polygon","coordinates":[[[-0.9974318845687749,41.265209009896246],[-0.9699016880695757,41.20526763659045],[-0.9544579193017322,41.188919989325235],[-0.972587560898766,41.15350008691727],[-1.0007892256052626,41.133882910199006],[-1.0390629134212226,41.13497275335002],[-1.0860656879320505,41.16439851842741],[-1.1062097341509767,41.16712312630494],[-1.1216535029188202,41.13497275335002],[-1.1740280230880282,41.12352940026437],[-1.2102873062820956,41.13878720437857],[-1.2546042079637334,41.12298447868886],[-1.2707194449388743,41.10118761566857],[-1.2532612715491382,41.07721106634625],[-1.2707194449388743,41.054869281750456],[-1.3190651558642972,41.049964987570895],[-1.378154358106481,41.072851693742194],[-1.4097133638494654,41.0581388112035],[-1.4224712597881188,41.02707828139959],[-1.4580590747748885,41.018359536191475],[-1.4466441152508303,40.97640057487742],[-1.4714884389208391,40.957873241310175],[-1.511776531358692,40.95623847658365],[-1.5574363694549245,40.939345907742926],[-1.6171970399044058,40.94370528034698],[-1.716574334584442,41.01345524201191],[-1.757533895229592,41.054869281750456],[-1.7172458027917394,41.09791808621553],[-1.618539976319001,41.126254008141906],[-1.6393554907452246,41.152410243766255],[-1.6299549358430592,41.17475202836205],[-1.5856380341614214,41.20090826398639],[-1.5151338723951795,41.167668047880454],[-1.4627593522259712,41.17747663623958],[-1.4211283233735237,41.241232460573926],[-1.373454080655398,41.26466408832074],[-1.3526385662291744,41.265209009896246],[-1.32376543331538,41.23741800954538],[-1.291534959365098,41.257035186263636],[-1.1968579421361447,41.241232460573926],[-1.1854429826120865,41.21126177392103],[-1.193500601099657,41.19000983247625],[-1.1491836994180193,41.19055475405176],[-1.1216535029188202,41.21889067597813],[-1.1216535029188202,41.25267581365958],[-1.0847227515174553,41.26466408832074],[-1.0511493411525783,41.254310578386104],[-0.9974318845687749,41.265209009896246]]]},"properties":{"C_COMARCA":"24"}},
{"type":"Feature","geometry":{"type":"Polygon","coordinates":[[[-0.972587560898766,41.15350008691727],[-1.0007892256052626,41.11481065505625],[-0.99877482098337,41.09519347833799],[-0.9571437921309225,41.07612122319524],[-0.9719160926914683,41.023263830371036],[-1.048463468323388,41.017814614615965],[-1.0565210868109587,41.00582633995481],[-1.0095183123001308,40.98184979063249],[-1.045777595494198,40.89302757382481],[-1.0464490637014954,40.854883063539305],[-1.0800224740663726,40.82218776900887],[-1.1122529480166545,40.823277612159885],[-1.0739792602006946,40.775869435090755],[-1.094123306419621,40.75134796419293],[-1.143811953759639,40.76006670940105],[-1.1639559999785651,40.74426398371134],[-1.233117225330212,40.72464680699308],[-1.230431352501022,40.69031674773613],[-1.2485609940980553,40.66143590423424],[-1.2982496414380735,40.63854919806294],[-1.3486097569853892,40.66416051211178],[-1.3915837222524319,40.65980113950772],[-1.4688025660916493,40.615662491891634],[-1.5050618492857164,40.658166374781196],[-1.5393067278578911,40.658166374781196],[-1.5359493868214034,40.68704721828308],[-1.5587793058695198,40.71919759123801],[-1.5399781960651886,40.760611630976555],[-1.5446784735162713,40.816193631678296],[-1.588995375197909,40.845074475180176],[-1.625926126599274,40.89847678957988],[-1.6077964850022401,40.92735763308177],[-1.6171970399044058,40.94370528034698],[-1.5574363694549245,40.939345907742926],[-1.511776531358692,40.95623847658365],[-1.4714884389208391,40.957873241310175],[-1.4466441152508303,40.97640057487742],[-1.4580590747748885,41.018359536191475],[-1.4224712597881188,41.02707828139959],[-1.4097133638494654,41.0581388112035],[-1.378154358106481,41.072851693742194],[-1.3190651558642972,41.049964987570895],[-1.2707194449388743,41.054869281750456],[-1.2532612715491382,41.07721106634625],[-1.2707194449388743,41.10118761566857],[-1.2546042079637334,41.12298447868886],[-1.2102873062820956,41.13878720437857],[-1.1740280230880282,41.12352940026437],[-1.1216535029188202,41.13497275335002],[-1.1062097341509767,41.16712312630494],[-1.0860656879320505,41.16439851842741],[-1.0390629134212226,41.13497275335002],[-1.0007892256052626,41.133882910199006],[-0.972587560898766,41.15350008691727]]]},"properties":{"C_COMARCA":"25"}},
{"type":"Feature","geometry":{"type":"Polygon","coordinates":[[[-0.6939282548702861,41.112086047178714],[-0.6919138502483935,41.10009777251756],[-0.7530174571124697,41.04887514441988],[-0.7442883704176018,40.99601775159568],[-0.6771415496878477,40.98021502590597],[-0.6321531797989124,40.9371662214409],[-0.6361819890426976,40.90883029951452],[-0.6563260352616238,40.89793186800438],[-0.6724412722367648,40.85106861251076],[-0.6637121855418968,40.831996357368006],[-0.6167094110310689,40.828726827914956],[-0.588507746324572,40.74426398371134],[-0.6173808792383664,40.71756282651148],[-0.6140235382018786,40.7033948655483],[-0.6274529023478295,40.63800427648743],[-0.6509542896032434,40.599859766201924],[-0.6301387751770198,40.576428138455114],[-0.6469254803594582,40.55190666755729],[-0.6737842086513599,40.58514688366323],[-0.7214584513694853,40.59876992305091],[-0.7214584513694853,40.637459354911925],[-0.7476457114540895,40.65925621793221],[-0.8194928096349263,40.65162731587511],[-0.8658241159384568,40.6957659634912],[-0.9242418499733429,40.73336555220119],[-0.9014119309252264,40.75734210152351],[-0.9403570869484839,40.77532451351525],[-0.9779593065571461,40.8243674553109],[-0.9658728788257904,40.85106861251076],[-1.0464490637014954,40.854883063539305],[-1.045777595494198,40.89302757382481],[-1.0095183123001308,40.98184979063249],[-1.0565210868109587,41.00582633995481],[-1.048463468323388,41.017814614615965],[-0.9719160926914683,41.023263830371036],[-0.9571437921309225,41.07612122319524],[-0.9128268904492847,41.09301379203596],[-0.8839537575354903,41.13006845917045],[-0.8282218963297945,41.096283321489004],[-0.7946484859649174,41.105002066697125],[-0.7765188443678837,41.152410243766255],[-0.7530174571124697,41.16657820472944],[-0.7154152375038074,41.12461924341538],[-0.6939282548702861,41.112086047178714]]]},"properties":{"C_COMARCA":"26"}},
{"type":"Feature","geometry":{"type":"Polygon","coordinates":[[[-0.3434218506609694,41.03307241873017],[-0.3635658968798956,41.01617984988945],[-0.3931104980009874,40.94425020192249],[-0.4703293418402048,40.947519731375536],[-0.4877875152299409,40.925722868355244],[-0.5220323938021154,40.91155490739206],[-0.5596346134107779,40.86632641662496],[-0.5468767174721245,40.84343971045365],[-0.5502340585086123,40.826002220037424],[-0.5180035845583302,40.81074441592322],[-0.47972989674237043,40.75134796419293],[-0.483087237778858,40.71265853233192],[-0.5133033071072475,40.6957659634912],[-0.5488911220940171,40.71265853233192],[-0.6019371104705229,40.72573665014409],[-0.6140235382018786,40.7033948655483],[-0.6173808792383664,40.71756282651148],[-0.588507746324572,40.74426398371134],[-0.6167094110310689,40.828726827914956],[-0.6637121855418968,40.831996357368006],[-0.6724412722367648,40.85106861251076],[-0.6563260352616238,40.89793186800438],[-0.6361819890426976,40.90883029951452],[-0.6321531797989124,40.9371662214409],[-0.6771415496878477,40.98021502590597],[-0.7442883704176018,40.99601775159568],[-0.7530174571124697,41.04887514441988],[-0.6919138502483935,41.10009777251756],[-0.6569975034689213,41.10554698827263],[-0.6234240931040442,41.08483996840336],[-0.5723925093494311,41.07666614477075],[-0.497859538339404,41.041246242362774],[-0.4703293418402048,41.05323451702394],[-0.44951382741398094,41.08756457628089],[-0.41996922629288913,41.083750125252344],[-0.3434218506609694,41.03307241873017]]]},"properties":{"C_COMARCA":"27"}},
{"type":"Feature","geometry":{"type":"Polygon","coordinates":[[[0.03662915466943906,41.04669545811785],[0.025214195145380813,41.00855094783234],[0.005741617133752097,40.9829396337835],[-0.03924675275518297,40.95896308446119],[-0.01708830191436439,40.92136349575119],[-0.03521794351139773,40.82654714161293],[-0.076177504156548,40.8014807491396],[-0.14466726130089702,40.78567802344989],[-0.19704178147010531,40.784588180298876],[-0.22390050976200704,40.75407257207047],[-0.23934427852985052,40.71810774808699],[-0.28500411662608327,40.768240533033655],[-0.2722462206874301,40.799845984413075],[-0.247401897017421,40.80475027859264],[-0.3172345905763654,40.862511965596404],[-0.3360357003806964,40.85651782826583],[-0.3219348680274481,40.81074441592322],[-0.3635658968798956,40.8091096511967],[-0.40519692573234334,40.818373317980324],[-0.4871160470226432,40.854883063539305],[-0.5468767174721245,40.84343971045365],[-0.5596346134107779,40.86632641662496],[-0.5220323938021154,40.91155490739206],[-0.4877875152299409,40.925722868355244],[-0.4703293418402048,40.947519731375536],[-0.3931104980009874,40.94425020192249],[-0.3635658968798956,41.01617984988945],[-0.3434218506609694,41.03307241873017],[-0.34275038245367195,41.06195326223205],[-0.32260633623474555,41.09246887046046],[-0.27090328427283494,41.13442783177452],[-0.2319581282495775,41.14750594958669],[-0.2366584057006602,41.17420710678654],[-0.21651435948173403,41.19055475405176],[-0.18092654449496437,41.18837506774973],[-0.10370770065574719,41.149685635888716],[-0.0781919087784404,41.15077547903973],[-0.011716556255983779,41.11917002766031],[-0.0009730649392230006,41.09028918415843],[0.03662915466943906,41.04669545811785]]]},"properties":{"C_COMARCA":"28"}},
{"type":"Feature","geometry":{"type":"Polygon","coordinates":[[[-0.7214584513694853,40.59876992305091],[-0.7389166247592214,40.568254314822504],[-0.7281731334424608,40.51812152987584],[-0.7778617807824788,40.51975629460236],[-0.7684612258803132,40.460904764447584],[-0.7369022201373288,40.41513135210497],[-0.8651526477311593,40.394969253811205],[-0.896040185266846,40.39878370483976],[-0.910812485827392,40.36554348873382],[-0.9551293875090299,40.35246537092164],[-0.9544579193017322,40.3339380373544],[-1.0115327169220234,40.303422429125995],[-1.0189188672022962,40.23912168321614],[-1.0041465666417504,40.21242052601629],[-1.0209332718241888,40.177545545183825],[-1.0652501735058266,40.17645570203281],[-1.094123306419621,40.16010805476759],[-1.1062097341509767,40.08872332837615],[-1.1478407630034242,40.114334642424986],[-1.2371460345739973,40.113789720849475],[-1.2458751212688655,40.138311191747306],[-1.2841488090848252,40.171551407853244],[-1.3230939651080826,40.184629525665414],[-1.3197366240715949,40.14648501537991],[-1.354652970851067,40.129592446539185],[-1.4486585198727229,40.145395172228895],[-1.4392579649705572,40.19716272190208],[-1.3841975719721589,40.21296544759179],[-1.32376543331538,40.24239121266918],[-1.2982496414380735,40.23694199691411],[-1.2787770634264448,40.25982870308542],[-1.24453218485427,40.25982870308542],[-1.2324457571229144,40.284895095558745],[-1.2559471443783283,40.30505719385251],[-1.2787770634264448,40.350830606195125],[-1.275419722389957,40.39605909696222],[-1.303621387096454,40.41567627368048],[-1.373454080655398,40.445102038757874],[-1.3647249939605302,40.50177388261062],[-1.3875549130086466,40.52193598090439],[-1.382854635557564,40.56226017749192],[-1.4728313753354345,40.59604531517337],[-1.4688025660916493,40.615662491891634],[-1.3915837222524319,40.65980113950772],[-1.3486097569853892,40.66416051211178],[-1.2982496414380735,40.63854919806294],[-1.2485609940980553,40.66143590423424],[-1.230431352501022,40.69031674773613],[-1.233117225330212,40.72464680699308],[-1.1639559999785651,40.74426398371134],[-1.143811953759639,40.76006670940105],[-1.094123306419621,40.75134796419293],[-1.0739792602006946,40.775869435090755],[-1.1122529480166545,40.823277612159885],[-1.0800224740663726,40.82218776900887],[-1.0464490637014954,40.854883063539305],[-0.9658728788257904,40.85106861251076],[-0.9779593065571461,40.8243674553109],[-0.9403570869484839,40.77532451351525],[-0.9014119309252264,40.75734210152351],[-0.9242418499733429,40.73336555220119],[-0.8658241159384568,40.6957659634912],[-0.8194928096349263,40.65162731587511],[-0.7476457114540895,40.65925621793221],[-0.7214584513694853,40.637459354911925],[-0.7214584513694853,40.59876992305091]]]},"properties":{"C_COMARCA":"29"}},
{"type":"Feature","geometry":{"type":"Polygon","coordinates":[[[-0.23934427852985052,40.71810774808699],[-0.23598693749336275,40.69086166931163],[-0.2796323709677029,40.67996323780149],[-0.30716256746690207,40.66198082580975],[-0.3286495501004234,40.68050815937699],[-0.3561797465996228,40.67778355149946],[-0.37968113385503677,40.62329139394873],[-0.3219348680274481,40.60258437407946],[-0.29037586228446366,40.54373284392468],[-0.3017908218085219,40.51757660830033],[-0.2715747524801324,40.47834225486381],[-0.33737863679529156,40.45654539184353],[-0.34745065990475466,40.44401219560686],[-0.4501852956212786,40.47561764698628],[-0.5045742204123793,40.42875439149265],[-0.5448623128502319,40.42385009731309],[-0.5891792145318697,40.4701684312312],[-0.619395283860259,40.45436570554149],[-0.6301387751770198,40.42112548943555],[-0.6697553994075747,40.45654539184353],[-0.7167581739184026,40.4696235096557],[-0.7684612258803132,40.460904764447584],[-0.7778617807824788,40.51975629460236],[-0.7281731334424608,40.51812152987584],[-0.7389166247592214,40.568254314822504],[-0.7214584513694853,40.59876992305091],[-0.6737842086513599,40.58514688366323],[-0.6469254803594582,40.55190666755729],[-0.6301387751770198,40.576428138455114],[-0.6509542896032434,40.599859766201924],[-0.6274529023478295,40.63800427648743],[-0.6140235382018786,40.7033948655483],[-0.6019371104705229,40.72573665014409],[-0.5488911220940171,40.71265853233192],[-0.5133033071072475,40.6957659634912],[-0.483087237778858,40.71265853233192],[-0.47972989674237043,40.75134796419293],[-0.5180035845583302,40.81074441592322],[-0.5502340585086123,40.826002220037424],[-0.5468767174721245,40.84343971045365],[-0.4871160470226432,40.854883063539305],[-0.40519692573234334,40.818373317980324],[-0.3635658968798956,40.8091096511967],[-0.3219348680274481,40.81074441592322],[-0.3360357003806964,40.85651782826583],[-0.3172345905763654,40.862511965596404],[-0.247401897017421,40.80475027859264],[-0.2722462206874301,40.799845984413075],[-0.28500411662608327,40.768240533033655],[-0.23934427852985052,40.71810774808699]]]},"properties":{"C_COMARCA":"30"}},
{"type":"Feature","geometry":{"type":"Polygon","coordinates":[[[-1.4688025660916493,40.615662491891634],[-1.4728313753354345,40.59604531517337],[-1.382854635557564,40.56226017749192],[-1.3875549130086466,40.52193598090439],[-1.3647249939605302,40.50177388261062],[-1.373454080655398,40.445102038757874],[-1.303621387096454,40.41567627368048],[-1.275419722389957,40.39605909696222],[-1.2787770634264448,40.350830606195125],[-1.2559471443783283,40.30505719385251],[-1.2324457571229144,40.284895095558745],[-1.24453218485427,40.25982870308542],[-1.2787770634264448,40.25982870308542],[-1.2982496414380735,40.23694199691411],[-1.32376543331538,40.24239121266918],[-1.3841975719721589,40.21296544759179],[-1.4392579649705572,40.19716272190208],[-1.4741743117500294,40.185174447240925],[-1.5111050631513943,40.20370178080817],[-1.540649664272486,40.19116858457151],[-1.6084679532095376,40.242936134244694],[-1.7420901264617485,40.35301029249715],[-1.7776779414485182,40.39169972435816],[-1.8031937333258248,40.39878370483976],[-1.7488048085347239,40.46308445074961],[-1.6924014791217306,40.487061000071925],[-1.701802034023896,40.54100823604714],[-1.685686797048755,40.57969766790816],[-1.6339837450868444,40.57969766790816],[-1.5990673983073722,40.56226017749192],[-1.5453499417235688,40.594955472022356],[-1.5648225197351975,40.61457264874062],[-1.5393067278578911,40.658166374781196],[-1.5050618492857164,40.658166374781196],[-1.4688025660916493,40.615662491891634]]]},"properties":{"C_COMARCA":"31"}},
{"type":"Feature","geometry":{"type":"Polygon","coordinates":[[[-0.34745065990475466,40.44401219560686],[-0.30716256746690207,40.4091372147744],[-0.28030383917500057,40.37371731236642],[-0.3145487177471751,40.358459508252224],[-0.35819415122151543,40.31268609590962],[-0.39982518007396295,40.2963384486444],[-0.383709943098822,40.264188075689475],[-0.45152823203587356,40.23530723218759],[-0.4945021973029162,40.2287681732815],[-0.5441908446429344,40.25165487945281],[-0.5576202087888851,40.200977172930635],[-0.5871648099099771,40.13122721126571],[-0.6287958387624246,40.10234636776383],[-0.6140235382018786,40.07128583795991],[-0.6643836537491943,40.051668661241656],[-0.7187725785402952,40.03859054342948],[-0.7624180120146353,40.04131515130702],[-0.7677897576730157,40.009164778352094],[-0.7899482085138345,39.98954760163383],[-0.8349365784027698,39.97919409169919],[-0.846351537926828,39.94758864031977],[-0.8302363009516871,39.906719522156735],[-0.798005827001405,39.88110820810789],[-0.8671670523530519,39.84677814885094],[-0.9101410176200946,39.86803009029572],[-0.9134983586565821,39.91816287524238],[-0.9027548673398216,39.93178591463006],[-0.9242418499733429,39.959576914980936],[-0.9880313296666094,39.98137377800122],[-1.0578640232255536,39.980283934850206],[-1.1424690173450438,39.9721101112176],[-1.1652989363931603,40.01025462150311],[-1.0840512833101579,40.03641085712745],[-1.071964855578802,40.06038740644977],[-1.1062097341509767,40.08872332837615],[-1.094123306419621,40.16010805476759],[-1.0652501735058266,40.17645570203281],[-1.0209332718241888,40.177545545183825],[-1.0041465666417504,40.21242052601629],[-1.0189188672022962,40.23912168321614],[-1.0115327169220234,40.303422429125995],[-0.9544579193017322,40.3339380373544],[-0.9551293875090299,40.35246537092164],[-0.910812485827392,40.36554348873382],[-0.896040185266846,40.39878370483976],[-0.8651526477311593,40.394969253811205],[-0.7369022201373288,40.41513135210497],[-0.7684612258803132,40.460904764447584],[-0.7167581739184026,40.4696235096557],[-0.6697553994075747,40.45654539184353],[-0.6301387751770198,40.42112548943555],[-0.619395283860259,40.45436570554149],[-0.5891792145318697,40.4701684312312],[-0.5448623128502319,40.42385009731309],[-0.5045742204123793,40.42875439149265],[-0.4501852956212786,40.47561764698628],[-0.34745065990475466,40.44401219560686]]]},"properties":{"C_COMARCA":"32"}},
{"type":"Feature","geometry":{"type":"Polygon","coordinates":[[[0.22061144346896544,41.07121692901568],[0.2300119983711313,41.03961147763626],[0.2622424723214132,41.02653335982408],[0.28440092316223176,40.96441230021626],[0.25351338562654524,40.91972873102466],[0.25082751279735493,40.85651782826583],[0.2783577092965541,40.821097925857856],[0.19039537414057595,40.75025812104192],[0.16152224122678183,40.72246712069105],[0.11250506209406153,40.72737141487062],[0.07288843786350618,40.71429329705844],[0.04200090032781967,40.69086166931163],[0.015142172035917945,40.72846125802163],[-0.06476254463248976,40.72737141487062],[-0.12653761970386368,40.75352765049496],[-0.14466726130089702,40.78567802344989],[-0.076177504156548,40.8014807491396],[-0.03521794351139773,40.82654714161293],[-0.01708830191436439,40.92136349575119],[-0.03924675275518297,40.95896308446119],[0.005741617133752097,40.9829396337835],[0.025214195145380813,41.00855094783234],[0.03662915466943906,41.04669545811785],[0.057444669095662704,41.07503138004422],[0.11921974416703662,41.07666614477075],[0.1467499406662358,41.06358802695857],[0.22061144346896544,41.07121692901568]]]},"properties":{"C_COMARCA":"33"}},
{"type":"Feature","geometry":{"type":"Polygon","coordinates":[[[-1.580266288503041,41.92074966523144],[-1.5769089474665532,41.888054370701006],[-1.6124967624533229,41.88369499809695],[-1.6205543809408935,41.85971844877463],[-1.6494275138546879,41.84010127205637],[-1.6608424733787461,41.795962624440286],[-1.6903870744998377,41.75509350627724],[-1.7273178259012028,41.725122819624346],[-1.7756635368266256,41.724577898048835],[-1.8253521841666438,41.77852513402405],[-1.8522109124585453,41.788333722383186],[-1.8186375020936683,41.829747762121734],[-1.8226663113374535,41.8651676645297],[-1.8575826581169257,41.90930631214579],[-1.8562397217023305,41.966523077574045],[-1.8334098026542143,41.99485899950042],[-1.7669344501317577,41.99594884265144],[-1.734032507974178,41.96379846969651],[-1.6870297334633502,41.952900038186364],[-1.6736003693173993,41.966523077574045],[-1.6145111670752157,41.950720351884335],[-1.580266288503041,41.92074966523144]]]},"properties":{"C_COMARCA":"12"}},
{"type":"Feature","geometry":{"type":"Polygon","coordinates":[[[-0.43944180430451785,42.79698355864706],[-0.4454850181701957,42.76646795041866],[-0.4213121627074843,42.75121014630445],[-0.43944180430451785,42.7321378911617],[-0.44212767713370793,42.70162228293329],[-0.4656290643891219,42.678735576761994],[-0.4313841858169474,42.623153576060254],[-0.44951382741398094,42.605171164068516],[-0.4206406945001866,42.58827859522779],[-0.42466950374397205,42.56702665378301],[-0.39915371186666526,42.50926496677924],[-0.4139260124272113,42.489102868485475],[-0.4461564863774934,42.49564192739156],[-0.48107283315696536,42.47275522122026],[-0.536133226155364,42.490737633212],[-0.5522484631305049,42.48528841745693],[-0.5817930642515967,42.44605406402041],[-0.5777642550078115,42.4307962599062],[-0.6254384977259368,42.41717322051852],[-0.6475969485667556,42.426981808877656],[-0.6945997230775838,42.4836536527304],[-0.7315304744789484,42.45422788765301],[-0.7785332489897763,42.46240171128562],[-0.8047205090743805,42.43188610305722],[-0.8819393529135977,42.45695249553055],[-0.8993975263033338,42.559942673301414],[-0.9215559771441528,42.57138602638707],[-1.0336911677628422,42.57247586953808],[-1.0343626359701397,42.597542262011416],[-1.1229964393334153,42.6111653013991],[-1.1579127861128873,42.61062037982359],[-1.1525410404545071,42.64767504695808],[-1.0692789827496119,42.6416809096275],[-1.038391445213925,42.64821996853359],[-1.0276479538971643,42.699987518206775],[-0.9464003008141617,42.71415547916996],[-0.900740462717929,42.760473813088076],[-0.8651526477311593,42.76319842096561],[-0.8476944743414232,42.786085127136914],[-0.8564235610362911,42.847116343593726],[-0.8147925321838436,42.87708703024662],[-0.8188213414276289,42.90051865799343],[-0.7832335264408592,42.92177059943821],[-0.7536889253197674,42.92449520731575],[-0.7328734108935435,42.8977940501159],[-0.6046229832997132,42.833493304206044],[-0.5529199313378024,42.78063591138184],[-0.5300900122896859,42.791534342891985],[-0.5106174342780572,42.82477455899793],[-0.43944180430451785,42.79698355864706]]]},"properties":{"C_COMARCA":"01"}}
]}
